<svg width="22" height="24" viewBox="0 0 22 24" xmlns="http://www.w3.org/2000/svg">
  <path d="M21.0212 22.5577C20.6862 22.5577 20.4146 22.2861 20.4146 21.951V7.03711C20.4146 6.63885 20.0916 6.31586 19.6934 6.31586H15.9575C15.5592 6.31586 15.2362 6.63885 15.2362 7.03711V21.6697C15.2362 22.1601 14.8386 22.5577 14.3482 22.5577C13.8578 22.5577 13.4603 22.1601 13.4603 21.6697V12.4385C13.4603 12.0403 13.1375 11.7173 12.7392 11.7173H9.00311C8.60486 11.7173 8.28204 12.0403 8.28204 12.4385V21.6696C8.28204 22.1601 7.88444 22.5577 7.39398 22.5577C6.90352 22.5577 6.50592 22.1601 6.50592 21.6696V11.1138C6.50592 10.7155 6.18292 10.3927 5.78467 10.3927H2.04877C1.65033 10.3927 1.32751 10.7155 1.32751 11.1138V21.9514C1.32751 22.2862 1.05608 22.5577 0.721252 22.5577C0.322815 22.5577 0 22.8805 0 23.2787C0 23.6772 0.322815 24 0.721252 24H21.0212C21.4195 24 21.7425 23.6772 21.7425 23.2787C21.7425 22.8805 21.4195 22.5577 21.0212 22.5577ZM16.6785 8.90506C16.6785 8.27165 17.192 7.75818 17.8254 7.75818C18.4588 7.75818 18.9723 8.27166 18.9723 8.90506V21.4108C18.9723 22.0442 18.4588 22.5577 17.8254 22.5577C17.192 22.5577 16.6785 22.0442 16.6785 21.4108V8.90506ZM9.72437 14.3064C9.72437 13.673 10.2378 13.1596 10.8712 13.1596C11.5045 13.1596 12.0179 13.673 12.0179 14.3064V21.4109C12.0179 22.0442 11.5045 22.5577 10.8712 22.5577C10.2378 22.5577 9.72437 22.0442 9.72437 21.4109V14.3064ZM2.76984 12.9818C2.76984 12.3485 3.28327 11.835 3.91663 11.835C4.54998 11.835 5.06342 12.3485 5.06342 12.9818V21.4109C5.06342 22.0442 4.54998 22.5577 3.91663 22.5577C3.28327 22.5577 2.76984 22.0442 2.76984 21.4109V12.9818Z" fill="url(#paint_linear)"/>
  <path d="M5.03265 8.26245C5.05389 8.26245 5.0755 8.26154 5.09692 8.2597C5.16211 8.25385 6.71777 8.10992 8.92621 7.32751C10.9539 6.60901 13.9486 5.18848 16.701 2.50067C16.7152 2.48693 16.7397 2.49612 16.7397 2.51582V3.56873C16.7397 3.96716 17.0625 4.28998 17.4608 4.28998C17.859 4.28998 18.182 3.96716 18.182 3.56873V0.721252C18.182 0.322815 17.859 0 17.4608 0H14.6131C14.2148 0 13.892 0.322815 13.892 0.721252C13.892 1.11951 14.2148 1.44232 14.6131 1.44232H15.6832C15.6972 1.44232 15.7032 1.45911 15.6932 1.46887C14.9511 2.1936 14.1898 2.81891 13.4372 3.3587C11.6049 4.6723 9.82324 5.47559 8.49188 5.95111C8.21503 6.04999 7.94934 6.1377 7.69611 6.21606C6.07654 6.71722 4.98175 6.82178 4.9693 6.82306C4.57306 6.8584 4.28027 7.20831 4.31525 7.60474C4.34839 7.97992 4.66315 8.26245 5.03265 8.26245Z" fill="url(#paint2_linear)"/>
  <defs>
    <linearGradient id="paint_linear" x1="22.3849" y1="14.7857" x2="-0.017454" y2="14.6375" gradientUnits="userSpaceOnUse">
      <stop stop-color="#FF7940"/>
      <stop offset="1" stop-color="#FF5DDB"/>
    </linearGradient>
    <linearGradient id="paint2_linear" x1="22.3849" y1="14.7857" x2="-0.017454" y2="14.6375" gradientUnits="userSpaceOnUse">
      <stop stop-color="#FF7940"/>
      <stop offset="1" stop-color="#FF5DDB"/>
    </linearGradient>
  </defs>
</svg>
