<svg width="32" height="32" viewBox="0 0 32 32" xmlns="http://www.w3.org/2000/svg">
  <path d="M30.5527 23.5706C28.8989 21.9165 26.4189 21.7119 24.5674 22.7998L22.9155 21.1477C23.7522 20.0266 24.3228 18.6958 24.5334 17.25H27.0618C27.752 17.25 28.3115 16.6904 28.3115 16C28.3115 15.3098 27.752 14.7502 27.0618 14.7502H24.5334C24.3228 13.3042 23.7522 11.9734 22.9155 10.8523L24.2463 9.52124C25.6016 10.1633 27.3015 9.94263 28.4546 8.78955C29.9036 7.34033 29.9041 4.99463 28.4546 3.54541C27.0056 2.09644 24.6599 2.09619 23.2107 3.54541C22.0593 4.69653 21.8359 6.39673 22.4788 7.75366L21.1477 9.08472C20.0266 8.24805 18.6958 7.67749 17.25 7.46655V6.16724C17.25 5.47705 16.6902 4.91748 16 4.91748C15.3096 4.91748 14.75 5.47705 14.75 6.16724V7.46655C13.3042 7.67749 11.9734 8.2478 10.8523 9.08447L9.20044 7.43262C10.2878 5.58154 10.0837 3.10156 8.42944 1.44727C6.5 -0.482178 3.37695 -0.482666 1.44727 1.44727C-0.482178 3.37646 -0.482666 6.49976 1.44727 8.42944C3.10107 10.0835 5.58105 10.2881 7.43262 9.20044L9.08447 10.8523C8.2478 11.9734 7.67725 13.3042 7.46655 14.75H4.93823C4.24805 14.75 3.68848 15.3096 3.68848 16C3.68848 16.6902 4.24805 17.25 4.93823 17.25H7.46655C7.67749 18.6958 8.2478 20.0266 9.08447 21.1477L7.75366 22.4788C7.26392 22.2468 6.7251 22.1245 6.16748 22.1245C4.11816 22.1245 2.45947 23.783 2.45947 25.8325C2.45947 27.8818 4.11768 29.5408 6.16748 29.5408C8.2168 29.5408 9.87549 27.8823 9.87549 25.8325C9.87549 25.2749 9.75317 24.7358 9.52124 24.2463L10.8523 22.9155C11.9734 23.7522 13.3042 24.3228 14.7502 24.5334V25.8328C14.7502 26.5229 15.3098 27.0825 16 27.0825C16.6904 27.0825 17.25 26.5229 17.25 25.8328V24.5334C18.6958 24.3228 20.0266 23.7522 21.1477 22.9155L22.7998 24.5674C21.7122 26.4185 21.9163 28.8984 23.5706 30.5527C25.5 32.4822 28.623 32.4827 30.5527 30.5527C32.4822 28.6235 32.4827 25.5002 30.5527 23.5706ZM16 22.1245C12.6228 22.1245 9.87549 19.3772 9.87549 16C9.87549 12.6228 12.6228 9.87549 16 9.87549C19.3772 9.87549 22.1245 12.6228 22.1245 16C22.1245 19.3699 19.3838 22.1245 16 22.1245ZM24.9783 5.31299C25.4504 4.84082 26.2148 4.84082 26.687 5.31299C27.1592 5.78516 27.1594 6.54956 26.687 7.02173C26.2148 7.4939 25.4507 7.4939 24.9785 7.02173C24.5061 6.54956 24.5061 5.7854 24.9783 5.31299ZM3.21484 6.66187C2.26465 5.71143 2.26465 4.16528 3.21484 3.21484C4.16504 2.26465 5.71143 2.26465 6.66187 3.21484C7.61206 4.16528 7.61206 5.71143 6.66187 6.66187C5.71143 7.61206 4.16528 7.61206 3.21484 6.66187ZM6.16748 27.0408C5.49976 27.0408 4.95923 26.5005 4.95923 25.8328C4.95923 25.1658 5.49927 24.6245 6.16748 24.6245C6.83521 24.6245 7.37573 25.1648 7.37573 25.8328C7.37573 26.5002 6.83521 27.0408 6.16748 27.0408ZM28.7852 28.7852C27.835 29.7356 26.2886 29.7356 25.3384 28.7852C24.3879 27.835 24.3879 26.2886 25.3384 25.3384C26.2886 24.3882 27.835 24.3879 28.7852 25.3384C29.7356 26.2886 29.7356 27.835 28.7852 28.7852Z" fill="url(#paint_linear)"/>
  <defs>
    <linearGradient id="paint_linear" x1="32.9455" y1="19.7143" x2="-0.025373" y2="19.4734" gradientUnits="userSpaceOnUse">
      <stop stop-color="#FF7940"/>
      <stop offset="1" stop-color="#FF5DDB"/>
    </linearGradient>
  </defs>
</svg>
